45
65
6
59
33
70
32
79
24
35
98
51
17
62
13
44
63
55
18
98
48
41
13
15
90
27
66
73
70
62
72
29
33
6
41
38
38
7
41
76
80
43
71
79
36
48
24
56
94
38
44
59
60
78
13
20
40
91
55
8
7
15
52
49
34
72
43
23
80
77
98
38
78
52
2
94
55
98
62
67
8
53

36
58
52
46
60
44
83
69
49
29
2
44
42
73
67
59
60
61
53
9
14
80
54
67
85
23
11
31
65
53
13
59
21
8
80
68
20
49
51
44
61
84
91
4
37
16
93
3
22
97
67
61
26
80
78
31
16
41
97
40
72
97
91
88
60
38
78
20
3
49
52
26
86
98
80
14
81
10
99
82
41
54
14
50
28
68
14
5
40
72
92
16
83
82
61
67
27
38
15
93
64
18
6
4

47
85
75
81
38
13
8
24
39
49
20
37
89
16
56
71
3
7
88
51
38
91
75
48
62
74
36
43
20
97
67
86
51
69
96
7
66
16
99
1
93
92
66
66
32
25
2
98
38
34
81
51
27
10
65
26
47
77
86
68
10
14
65
5
7
82
62
15
62
28
5
36
48
82
93
69
51
77
91
2
64
6
71
25
96
8
55
76
22
95
30
61
92
4
5
18
48
69
29
51
81
79
53
99
85
61
71
59
2
34
38
70
59
51
39
37
72
85
67
3
56
70
67
34
51
48
79
65
14
34
47
77
59
39
10
33
67
27
12
37
98
52
34
54
11
7
13
39
37
86
24
13
15
3
22
61
96
99
16
8
81
37
88
2
90
45
43
26
75
16
46
60
1
41
7
81
31
59
5
58
96
9
68
28
24
74
68
65
65
79
37
28
64
76
80
15
44
85
7
17
54
95
45
16
83
17
88
3
32
52
79
9
15
11
95
85
17
7
35
57
45
46
65
1
37
2
13
33
74
85
64
31
52

43
49
1
86
7
79
93
92
47
79
53
91
5
84
68
20
94
89
84
79
79
26
60
67
95
16
15
19
62
7
65
39
32
61
41
91
43
55
80
10
74
5
44
50
13
97
90
63
90
63
78
12
35
67
51
21
88
24
99
97
67
74
62
30
89
15
98
96
13
28
99
33

92
23
91
92
84
35
73
50
97
81
53
88
9
79
47
97
59
99
22
50
30
32
28
70
39
74
89
46
56
40
80
33
15
35
53
74
39
34
92
27
74
28

26
5
4
19
93
81
67
14
57
40
41
9
89
52
53
42
31
64
9
73
3
53
59
2
8
16
40
57
40
48
83
54
12
54
50
15
48
86
52
98
43
97
67
94
95
83
75
23
87
14
77
36
8
73
63
83
84
73
62
15
87
90
74
75
17
96
21
32
36
6
59
36
3
11
82
33
56
21
10
96
83
10
56
53
11
2
87
17
44
56
46
81
71
2
93
82
20
42
89
72
60
47
36
58
23
2
36
81
22
54
50
34
10
61
85
90
77
17
82
48
64
18
10
12
92
86
36
79
55
9
71
81
75
12
12
45
47
78
63
97
76
88
29
50
68
30
72
45
22
83
24
67
97
60
82
72
22
77
21
81
41
2
28
76
73
53
15
1
63
28
92
49
38
61
38

65
6
80
78
68
65
40
49
73
41
45
85
79
59
24
68
19
35
16
75
51
22
58
31
7
3
85
97
56
91
17
16
93
17
71
48
76
43
13
58
32
23
4
58
95
49
78
66
39
69
64
90
19
43
69
53
67
62
77
14
75
42
2
18
92
95
30
41
36
71
35
76
96
35
31
47
76
71
62
96
18
77
16
85
11
24
83
86
40
47
66
54
72
21
84
1
49
6
58
15
62
96
77
24
63
85
42
86
97
72
9
99
19
5
1
27
10
37
89
43
10
96
71
18
16
6
20
11
41
10
58
41
54
34
54
2
15
12
38
6
72
42
41
61
97
72
52
36
50
77
85
23
89
24
58
80
64
86
55
61
10
46
4
82
90
93
96

34
7
35
47
28
89
99
70
82
95
55
90
30
97
17
35
36
86
70
75
33
83
78
36
1
87
39
79
38
11
32
54
60
84
73
12

45
69
1
63
7
45
71
81
81
48
32
57
49
17
23
96
95
91
84
4
73
96
13
97
11
51
28
5
60
81
24
27
79
57
95
6
65
61
72
8
76
98
66
42
99
51
82
5
86
30
56
75
22
37
87
61
1
12
56
10
9
89
34
72
25
85
6
52
98
92
37
53
84
13
65
72
22
50
51
67
9